year,ew,wili,error
2005.0,1.0,1.16430065565,0.00729695860107
2005.0,2.0,1.09862759645,0.0174149711814
2005.0,3.0,1.03928982007,0.0117040079406
2005.0,4.0,0.986287326503,0.000264241986606
2005.0,5.0,0.93962011575,0.000322167508091
2005.0,6.0,0.899288187812,1.98088319745e-05
2005.0,7.0,0.865291542688,0.00450057535861
2005.0,8.0,0.837630180378,0.0063708649967
2005.0,9.0,0.816304100882,9.3301641968e-05
2005.0,10.0,0.801313304201,0.00317941765189
2005.0,11.0,0.792657790334,3.14560089811e-05
2005.0,12.0,0.790337559282,0.0111542725645
2005.0,13.0,0.794352611044,0.00220821887529
2005.0,14.0,0.80470294562,0.0170899371826
2005.0,15.0,0.821388563011,0.00233028620386
2005.0,16.0,0.844409463216,0.00303815934104
2005.0,17.0,0.873765646235,0.00036599582044
2005.0,18.0,0.909457112068,0.0103569970622
2005.0,19.0,0.951483860716,0.000692984873611
2005.0,20.0,0.999845892179,0.031659310178
2005.0,21.0,1.05454320646,0.0271995378183
2005.0,22.0,1.21679279026,0.00811885162366
2005.0,23.0,1.37472323723,0.00125416536202
2005.0,24.0,1.52833454736,0.00306991867569
2005.0,25.0,1.67762672065,0.0428092480047
2005.0,26.0,1.8225997571,0.0446917792404
2005.0,27.0,1.9632536567,0.0185666934289
2005.0,28.0,2.09958841947,0.105476998736
2005.0,29.0,2.2316040454,0.0824247831031
2005.0,30.0,2.35930053449,1.75175744612e-05
2005.0,31.0,2.48267788673,0.391997774255
2005.0,32.0,2.60173610214,0.463270836894
2006.0,33.0,2.71647518071,0.00762745243694
2006.0,34.0,2.55374273348,0.0913536380569
2006.0,35.0,2.46473468912,0.011269560639
2006.0,36.0,2.44945104761,0.000938618875283
2006.0,37.0,2.50789180897,0.000385347936859
2006.0,38.0,2.64005697319,8.98808135773e-05
2006.0,39.0,2.84594654026,0.0803193414428
2006.0,40.0,3.1255605102,1.30212035088e-06
2006.0,41.0,3.478898883,0.121039681181
2006.0,42.0,3.07538615769,5.217546501e-05
2006.0,43.0,2.70655759083,0.00387517800266
2006.0,44.0,2.37241318242,0.00255349233616
2006.0,45.0,2.07295293247,0.0568597744941
2006.0,46.0,1.80817684097,0.00309752825898
2006.0,47.0,1.57808490792,0.0165508011706
2006.0,48.0,1.38267713333,0.00646481571592
2006.0,49.0,1.22195351719,0.00763258147465
2006.0,50.0,1.09591405951,0.00111304317751
2006.0,51.0,1.00455876028,0.000883603677154
2006.0,52.0,0.947887619507,0.00490311635955
