year,ew,wili,error
2013.0,1.0,0.994997675182,0.000473960271285
2013.0,2.0,0.951446984837,0.00941341614483
2013.0,3.0,0.913697853278,4.42378868079e-05
2013.0,4.0,0.881750280504,0.00152324494465
2013.0,5.0,0.855604266515,0.00237453507105
2013.0,6.0,0.835259811311,2.19914634335e-05
2013.0,7.0,0.820716914893,0.00177405946858
2013.0,8.0,0.811975577261,0.00636695243067
2013.0,9.0,0.809035798414,0.00713655574548
2013.0,10.0,0.811897578352,0.00504806659605
2013.0,11.0,0.820560917075,0.00893475157706
2013.0,12.0,0.835025814584,0.00630230460163
2013.0,13.0,0.855292270878,0.00873209485695
2013.0,14.0,0.881360285958,0.0102950907335
2013.0,15.0,0.913229859823,0.000198583470886
2013.0,16.0,0.950900992474,0.00236419181074
2013.0,17.0,0.994373683909,0.00377337877526
2013.0,18.0,1.04364793413,0.00281467666448
2013.0,19.0,1.09872374314,0.022013167787
2013.0,20.0,1.15960111093,5.57210326024e-05
2013.0,21.0,1.22628003751,0.00172526358248
2013.0,22.0,1.29876052287,0.000184037846931
2013.0,23.0,1.37704256702,0.000134126077874
2013.0,24.0,1.46112616995,5.14484723341e-06
2013.0,25.0,1.55101133167,0.000648804892106
2013.0,26.0,1.64669805217,0.00222893429394
2013.0,27.0,1.74818633146,0.000805844188263
2013.0,28.0,1.85547616954,0.0644611785432
2013.0,29.0,1.9685675664,0.0390619274602
2013.0,30.0,2.8187573743,0.200880400951
2013.0,31.0,3.4658067832,0.0815400505308
2013.0,32.0,3.9097157931,0.472826944433
2014.0,33.0,4.150484404,0.0198850086922
2014.0,34.0,3.88340201739,0.0966923977007
2014.0,35.0,3.61631963078,0.0615050831823
2014.0,36.0,3.34923724417,0.00239181000391
2014.0,37.0,3.08215485756,0.00127981162301
2014.0,38.0,2.81507247095,3.44178876515e-06
2014.0,39.0,2.54799008434,0.00398015173165
2014.0,40.0,2.28090769772,4.62853431044e-05
2014.0,41.0,2.01382531111,0.00294640453054
2014.0,42.0,1.94716875505,0.00131351794898
2014.0,43.0,1.88051219898,0.00397275772505
2014.0,44.0,1.81385564291,3.81027895848e-05
2014.0,45.0,1.74719908684,5.89706866854e-05
2014.0,46.0,1.68054253078,0.00422401460863
2014.0,47.0,1.61388597471,0.003427619728
2014.0,48.0,1.54722941864,0.000842745484426
2014.0,49.0,1.48057286257,0.00111527396285
2014.0,50.0,1.4139163065,0.0150139932692
2014.0,51.0,1.34725975044,0.000684204704961
2014.0,52.0,1.28060319437,0.00377590398607
