season,error
2000-2001,0.182072784695
2001-2002,0.480631203063
2002-2003,0.181904147943
2003-2004,0.234084512215
2004-2005,0.185423535626
2005-2006,0.182714729952
2006-2007,0.183077000726
2007-2008,0.248710033243
2008-2009,0.21941642488
2009-2010,0.27891526038
2010-2011,0.16779683589
2011-2012,0.108510483194
2012-2013,0.239765919998
2013-2014,0.151108795401
2014-2015,0.267280536936
