year,peak_value,peak_week
2000.0,4.2838856986,37.0
2001.0,3.3870478928,41.0
2002.0,3.26096844273,39.0
2003.0,8.13056047182,31.0
2004.0,5.24154477266,39.0
2005.0,3.478898883,41.0
2006.0,3.56360067741,39.0
2007.0,6.1030942327,39.0
2008.0,3.50358878636,39.0
2009.0,7.64842033527,23.0
2010.0,4.38695396568,38.0
2011.0,2.28105485455,41.0
2012.0,5.01422602446,33.0
2013.0,4.150484404,33.0
2014.0,4.96165707593,33.0
