year,peak_value,peak_week
2000.0,4.29457815094,37.0
2001.0,3.5698219449,41.0
2002.0,3.24502035129,39.0
2003.0,8.1080429499,31.0
2004.0,5.257750488,39.0
2005.0,3.17073286459,40.0
2006.0,3.58969326812,39.0
2007.0,6.07412726546,39.0
2008.0,3.50244834012,39.0
2009.0,7.65438129688,22.0
2010.0,4.46365452129,38.0
2011.0,2.29889067717,41.0
2012.0,5.04048488684,33.0
2013.0,4.04364163375,32.0
2014.0,5.16642949925,32.0
