year,ew,wili,num_ili,num_patients,age_0,age_1,age_2,age_3,age_4,age_5
2000,1.0,0.805438572694,3646,367075,1393,1116,926.0,,,211
2000,2.0,1.152025575,5946,531954,2249,1980,,1013.0,397.0,307
2000,3.0,0.834551050052,987,133117,355,309,257.0,,,66
2000,4.0,1.00254284823,1614,154899,573,507,409.0,,,125
2000,5.0,0.986438,6170,595316,1912,2032,,1258.0,522.0,446
2000,6.0,0.793127059425,1455,218376,514,408,431.0,,,102
2000,7.0,0.903832,5329,593765,1561,1761,,1156.0,471.0,380
2000,8.0,0.944186620642,5295,601116,1758,1623,,1122.0,441.0,351
2000,9.0,0.7889,4908,585998,1426,1600,,1106.0,445.0,331
2000,10.0,0.649058493453,1356,205241,477,392,391.0,,,96
2000,11.0,0.787049224655,982,142468,331,326,267.0,,,58
2000,12.0,0.564652873181,2220,294930,679,706,619.0,,,216
2000,13.0,0.652175701177,1283,207580,439,411,338.0,,,95
2000,14.0,1.04450505026,6141,594395,2098,2128,,1194.0,425.0,296
2000,15.0,0.78745825203,1526,213219,502,500,416.0,,,108
2000,16.0,0.899528963767,1061,136817,338,396,264.0,,,63
2000,17.0,1.16286948705,8130,695966,2300,3316,,1550.0,568.0,396
2000,18.0,1.22892263866,7656,630563,2295,2972,,1530.0,511.0,348
2000,19.0,0.807934420623,1433,160732,476,512,364.0,,,81
2000,20.0,1.04113363965,1041,84727,206,443,322.0,,,70
2000,21.0,1.28709844063,1234,116917,270,489,389.0,,,86
2000,22.0,1.28298747975,1561,134587,390,617,458.0,,,96
2000,23.0,1.34080729313,1781,145165,411,683,564.0,,,123
2000,24.0,1.05549660151,1870,150676,465,703,564.0,,,138
2000,25.0,1.1413587058,2229,155700,564,849,635.0,,,181
2000,26.0,1.44110503864,2449,163893,572,979,736.0,,,162
2000,27.0,1.95734583549,2417,131168,704,913,646.0,,,154
2000,28.0,1.61927860546,2854,178641,673,1085,900.0,,,196
2000,29.0,1.78440202396,3097,178529,710,1232,916.0,,,239
2000,30.0,2.34423392246,3394,165935,677,1455,1077.0,,,185
2000,31.0,2.6952760002,3361,139431,767,1337,1052.0,,,205
2000,32.0,3.86180307034,4152,122719,1059,1335,1496.0,,,262
2001,33.0,3.50499785483,4796,148538,1049,1571,1855.0,,,321
2001,34.0,3.43803554526,5544,177720,1081,2423,1722.0,,,318
2001,35.0,4.39279926784,6717,176566,1395,3223,1806.0,,,293
2001,36.0,4.21338702999,7908,188879,1542,4057,1991.0,,,318
2001,37.0,4.35363988214,7287,182792,1329,3705,1958.0,,,295
2001,38.0,3.69969326753,6476,179586,1370,3017,1731.0,,,358
2001,39.0,2.81921249162,4832,171948,1059,2126,1393.0,,,254
2001,40.0,2.55294130051,3923,162402,834,1566,1278.0,,,245
2001,41.0,1.90166591812,2606,150399,683,1008,752.0,,,163
2001,42.0,1.68032660335,2562,155916,622,934,854.0,,,152
2001,43.0,1.62539726626,1943,143075,524,762,522.0,,,135
2001,44.0,1.45956702846,1879,135154,485,751,507.0,,,136
2001,45.0,1.32375912761,1590,129934,465,575,419.0,,,131
2001,46.0,0.920073256501,1256,112235,288,421,421.0,,,126
2001,47.0,0.779256523069,950,101175,219,344,305.0,,,82
2001,48.0,0.991302636886,997,105580,234,331,344.0,,,88
2001,49.0,0.826930031205,771,103824,198,274,253.0,,,46
2001,50.0,0.58895189401,734,99802,173,265,225.0,,,71
2001,51.0,0.605586208138,671,92532,165,250,196.0,,,60
2001,52.0,0.494339755407,470,70113,94,179,159.0,,,38
