year,ew,wili,num_ili,num_patients,age_0,age_1,age_2,age_3,age_4,age_5
2002,1.0,0.918150851578,2061,231075,699,764,452.0,,,146
2002,2.0,1.0484697458,6190,541528,2109,2094,,1147.0,483.0,357
2002,3.0,0.857294424084,2075,213847,754,626,564.0,,,131
2002,4.0,0.920779051233,5539,541138,1969,1713,,1112.0,468.0,277
2002,5.0,0.655943482,2842,321789,1115,855,712.0,,,160
2002,6.0,0.830570305641,4915,540408,1703,1581,,947.0,399.0,285
2002,7.0,0.862836500226,4506,474295,1594,1489,,851.0,321.0,251
2002,8.0,0.944186620642,5295,601116,1758,1623,,1122.0,441.0,351
2002,9.0,1.16056441079,5735,503971,1608,2285,1611.0,,,231
2002,10.0,0.85838236525,3850,526723,1290,1279,,805.0,302.0,174
2002,11.0,1.15544127671,5526,496666,1651,2082,1530.0,,,263
2002,12.0,1.14517885143,5877,506019,1645,2321,1646.0,,,265
2002,13.0,0.585681702598,2368,298701,789,745,650.0,,,184
2002,14.0,0.767626654443,5305,635980,1569,1813,,1196.0,412.0,315
2002,15.0,0.89913789506,5053,540157,1499,1814,,1014.0,410.0,316
2002,16.0,0.806627170384,1463,144289,492,506,396.0,,,69
2002,17.0,1.16286948705,8130,695966,2300,3316,,1550.0,568.0,396
2002,18.0,1.13914,8099,656663,2200,3121,,1668.0,663.0,447
2002,19.0,1.05206476962,2228,273623,729,788,583.0,,,128
2002,20.0,1.22262328425,2060,176569,582,805,524.0,,,149
2002,21.0,1.33343810867,2267,186355,683,872,585.0,,,127
2002,22.0,1.3192896689,2176,192469,642,878,543.0,,,113
2002,23.0,1.49483509458,2599,207512,728,1045,672.0,,,154
2002,24.0,1.47194798339,2907,223208,823,1189,741.0,,,154
2002,25.0,1.58094034275,3225,229454,887,1272,886.0,,,180
2002,26.0,1.49426399288,3097,223712,851,1173,898.0,,,175
2002,27.0,1.40568657579,2967,223818,802,1166,817.0,,,182
2002,28.0,1.61410143363,2709,188814,834,978,711.0,,,186
2002,29.0,1.45966820631,3049,243078,857,1117,869.0,,,206
2002,30.0,1.59895934632,2957,235136,804,1179,792.0,,,182
2002,31.0,2.16696908291,3416,216179,951,1404,849.0,,,212
2002,32.0,2.5784233941,2857,144287,915,937,828.0,,,177
2003,33.0,2.38636019217,3260,171193,1028,1019,962.0,,,251
2003,34.0,1.73621011605,3729,234513,1068,1296,1091.0,,,274
2003,35.0,2.06296186344,4204,231550,1154,1798,1011.0,,,241
2003,36.0,2.58113164455,5696,235566,1373,2998,1104.0,,,221
2003,37.0,2.93909470372,7079,246969,1411,4064,1322.0,,,282
2003,38.0,3.22538895555,7782,245751,1606,4447,1421.0,,,308
2003,39.0,3.06981876517,7649,253656,1568,4224,1566.0,,,291
2003,40.0,3.2004360688,7228,241110,1694,3689,1537.0,,,308
2003,41.0,2.44888415228,5606,241683,1336,2583,1400.0,,,287
2003,42.0,2.13439644187,4450,228549,1015,2103,1085.0,,,247
2003,43.0,1.99866199516,3810,220250,880,1669,987.0,,,274
2003,44.0,1.9384922127,2987,196724,737,1321,773.0,,,156
2003,45.0,1.41293161719,2439,198913,624,1016,640.0,,,159
2003,46.0,1.23472204048,2028,192349,506,846,541.0,,,135
2003,47.0,1.20004644305,2082,194383,569,799,551.0,,,163
2003,48.0,0.910134874668,1467,177577,440,539,382.0,,,106
2003,49.0,0.932265056781,1445,176111,429,508,394.0,,,114
2003,50.0,0.692174767593,1075,170406,275,444,272.0,,,84
2003,51.0,0.669406229596,1005,157191,215,471,245.0,,,74
2003,52.0,0.727705269811,836,142514,248,283,235.0,,,70
