year,ew,wili,num_ili,num_patients,age_0,age_1,age_2,age_3,age_4,age_5
2010,1.0,1.08908766932,6853,633532,2636,2188,,1235,445,349
2010,2.0,1.17760142013,6595,549773,2413,2172,,1212,463,335
2010,3.0,0.974930395183,5755,604004,2147,1831,,1081,374,322
2010,4.0,0.987131780132,5316,580329,1975,1784,,978,339,240
2010,5.0,0.99599053755,5334,575664,2027,1779,,882,397,249
2010,6.0,0.904726272396,4718,542536,1754,1541,,862,323,238
2010,7.0,0.94192700784,4691,519414,1753,1566,,816,334,222
2010,8.0,0.880415229456,4234,547187,1458,1450,,819,298,209
2010,9.0,0.842614661883,3950,531790,1323,1335,,759,335,198
2010,10.0,0.85838236525,3850,526723,1290,1279,,805,302,174
2010,11.0,0.833830394848,4077,518121,1381,1357,,839,291,209
2010,12.0,0.847436542816,4008,525260,1378,1307,,809,300,214
2010,13.0,0.888273269261,4518,537190,1485,1592,,883,360,198
2010,14.0,0.765372287903,4420,558382,1520,1592,,811,295,202
2010,15.0,0.918580442925,5007,548573,1564,1866,,1019,354,204
2010,16.0,1.01431787185,5493,531250,1850,1959,,1076,374,234
2010,17.0,1.01232561234,5510,589930,1720,2118,,1061,358,253
2010,18.0,1.11803281726,6741,623077,2134,2510,,1291,480,326
2010,19.0,1.11805942185,6387,599366,1995,2383,,1269,446,294
2010,20.0,1.10938713426,8473,746485,2627,3142,,1677,627,400
2010,21.0,1.24341149915,9347,746230,2953,3522,,1779,649,444
2010,22.0,1.25726202876,9684,777397,3044,3641,,1898,690,411
2010,23.0,1.25734477501,9904,781234,3226,3822,,1754,682,420
2010,24.0,1.43413958364,11020,766753,3451,4397,,1981,736,455
2010,25.0,1.51837799055,11807,769982,3927,4679,,1956,734,511
2010,26.0,1.61617408132,13336,787038,4416,5322,,2327,774,497
2010,27.0,1.84377719131,12079,606527,4598,4145,,2043,743,550
2010,28.0,1.72535439682,13997,772016,5045,4978,,2440,915,619
2010,29.0,1.87923221693,14958,742606,5060,5867,,2511,893,627
2010,30.0,2.33710295537,18022,704923,6300,7194,,2847,1031,650
2010,31.0,3.0353314284,19899,588406,7295,7071,,3433,1262,838
2010,32.0,3.13599885551,20346,592880,7478,5764,,4455,1581,1068
2011,33.0,2.53335613703,20026,744043,6584,6342,,4455,1586,1059
2011,34.0,2.91287712627,20721,711908,6238,7773,,4220,1537,953
2011,35.0,3.44497101615,26257,751850,7247,11243,,5095,1734,938
2011,36.0,4.16184976779,31975,798637,8007,15291,,5952,1794,931
2011,37.0,4.55159151065,34284,772974,8195,16366,,6536,1990,1197
2011,38.0,4.46503662084,34456,812230,8036,16516,,6812,1996,1096
2011,39.0,4.55124325058,36567,831600,8172,17493,,7257,2352,1293
2011,40.0,4.08219688116,31277,801449,7839,13718,,6425,2028,1267
2011,41.0,3.38812251983,24627,781629,6376,10496,,4869,1740,1146
2011,42.0,2.99141757884,20377,747993,5691,8427,,3939,1421,899
2011,43.0,2.61541908057,17309,741807,5363,6702,,3265,1175,804
2011,44.0,2.09064821275,14031,728883,4400,5489,,2551,978,613
2011,45.0,1.86145522471,12957,739375,4189,5025,,2244,877,622
2011,46.0,1.61377133351,11498,729089,3701,4557,,1985,747,508
2011,47.0,1.42199174484,9391,691707,3164,3562,,1574,641,450
2011,48.0,1.3382045893,8695,662612,3139,3064,,1505,559,428
2011,49.0,1.19995265451,7830,681240,2895,2673,,1324,555,383
2011,50.0,1.14888598829,7307,655627,2532,2553,,1305,524,393
2011,51.0,1.12193954091,7236,651983,2551,2595,,1254,485,351
2011,52.0,1.06712359981,6530,620485,2353,2280,,1131,461,305
