year,ew,wili,num_ili,num_patients,age_0,age_1,age_2,age_3,age_4,age_5
2013,1.0,1.01676830382,6589,581338,2230,2219,,1279,493,368
2013,2.0,1.0484697458,6190,541528,2109,2094,,1147,483,357
2013,3.0,0.92034901008,5638,558875,1983,1779,,1086,460,330
2013,4.0,0.920779051233,5539,541138,1969,1713,,1112,468,277
2013,5.0,0.904333467935,5474,546643,1877,1766,,1040,489,302
2013,6.0,0.830570305641,4915,540408,1703,1581,,947,399,285
2013,7.0,0.862836500226,4506,474295,1594,1489,,851,321,251
2013,8.0,0.732182391896,4510,543833,1576,1491,,862,362,219
2013,9.0,0.724557660736,4186,521874,1432,1405,,849,315,185
2013,10.0,0.740847831019,4233,524969,1416,1464,,800,332,221
2013,11.0,0.726037102208,3886,487617,1216,1284,,852,350,184
2013,12.0,0.755638758954,4075,523015,1367,1338,,870,302,198
2013,13.0,0.761846592236,4168,522533,1364,1366,,919,331,188
2013,14.0,0.77989555941,4317,522965,1331,1561,,892,301,232
2013,15.0,0.89913789506,5053,540157,1499,1814,,1014,410,316
2013,16.0,0.999523948068,5626,539175,1681,2035,,1137,462,311
2013,17.0,1.05580151779,6374,584196,1926,2437,,1217,440,354
2013,18.0,1.09670146054,7110,591969,2175,2683,,1350,537,365
2013,19.0,1.24709209484,7963,631088,2393,2963,,1500,648,459
2013,20.0,1.15213645872,9732,863516,2989,3787,,1856,643,457
2013,21.0,1.26781632986,10461,867328,3288,3945,,1933,762,533
2013,22.0,1.31232657782,10689,854487,3490,3895,,2014,790,500
2013,23.0,1.36546128566,12062,883581,3935,4498,,2297,816,516
2013,24.0,1.46339439552,12526,878350,4051,4653,,2359,932,531
2013,25.0,1.57648298046,13553,885993,4445,5087,,2520,963,538
2013,26.0,1.5994864615,13939,872046,4644,5006,,2720,991,578
2013,27.0,1.71979893658,15114,876368,4803,5565,,3083,1081,582
2013,28.0,2.10936823035,13978,666365,4937,4315,,3028,1059,639
2013,29.0,2.16620847173,18962,858302,5561,6591,,4388,1554,868
2013,30.0,2.37056054148,19428,802856,5503,7059,,4466,1597,803
2013,31.0,3.1802545979,24766,815189,6566,8457,,6530,2274,939
2013,32.0,4.5973399233,26884,612861,7778,7463,,7475,2861,1307
2014,33.0,4.2914986185,28721,680679,7507,6740,,9149,3560,1765
2014,34.0,3.57244800519,28149,811947,6228,7890,,8832,3565,1634
2014,35.0,3.36831744695,28614,859797,6105,9613,,8118,3167,1611
2014,36.0,3.39814337879,25477,785885,5866,8853,,6812,2616,1330
2014,37.0,3.11792931245,23481,817326,5130,8721,,6031,2402,1197
2014,38.0,2.81321726509,21198,813543,4753,7746,,5316,2256,1127
2014,39.0,2.48490164061,18211,778029,4216,6721,,4472,1832,970
2014,40.0,2.27410436449,17208,811799,4235,6114,,4304,1683,872
2014,41.0,2.0681061045,15921,835169,3953,5877,,3695,1505,891
2014,42.0,1.98341124322,15036,789895,3768,5577,,3470,1430,791
2014,43.0,1.81748238282,14002,796441,3606,5015,,3205,1359,817
2014,44.0,1.82002838862,14927,804999,3798,5612,,3285,1422,810
2014,45.0,1.75487832422,14670,805304,3524,5814,,3258,1299,775
2014,46.0,1.7455349504,14617,796916,3573,5653,,3151,1435,805
2014,47.0,1.67243185183,14210,809908,3576,5588,,2944,1316,786
2014,48.0,1.51819933968,11733,770738,3135,4283,,2517,1088,710
2014,49.0,1.44717714484,10817,770938,2841,3771,,2506,1037,662
2014,50.0,1.2913847054,9693,767449,2510,3606,,2096,920,561
2014,51.0,1.37341705735,9739,736271,2761,3612,,2006,834,526
2014,52.0,1.3420515791,9011,706436,2527,3255,,1871,826,532
