year,ew,wili,num_ili,num_patients,age_0,age_1,age_2,age_3,age_4,age_5
2002,40,1.22262328425,2060,176569,582,805,524,,,149
2002,41,1.33343810867,2267,186355,683,872,585,,,127
2002,42,1.3192896689,2176,192469,642,878,543,,,113
2002,43,1.49483509458,2599,207512,728,1045,672,,,154
2002,44,1.47194798339,2907,223208,823,1189,741,,,154
2002,45,1.58094034275,3225,229454,887,1272,886,,,180
2002,46,1.49426399288,3097,223712,851,1173,898,,,175
2002,47,1.40568657579,2967,223818,802,1166,817,,,182
2002,48,1.61410143363,2709,188814,834,978,711,,,186
2002,49,1.45966820631,3049,243078,857,1117,869,,,206
2002,50,1.59895934632,2957,235136,804,1179,792,,,182
2002,51,2.16696908291,3416,216179,951,1404,849,,,212
2002,52,2.5784233941,2857,144287,915,937,828,,,177
2003,1,2.38636019217,3260,171193,1028,1019,962,,,251
2003,2,1.73621011605,3729,234513,1068,1296,1091,,,274
2003,3,2.06296186344,4204,231550,1154,1798,1011,,,241
2003,4,2.58113164455,5696,235566,1373,2998,1104,,,221
2003,5,2.93909470372,7079,246969,1411,4064,1322,,,282
2003,6,3.22538895555,7782,245751,1606,4447,1421,,,308
2003,7,3.06981876517,7649,253656,1568,4224,1566,,,291
2003,8,3.2004360688,7228,241110,1694,3689,1537,,,308
2003,9,2.44888415228,5606,241683,1336,2583,1400,,,287
2003,10,2.13439644187,4450,228549,1015,2103,1085,,,247
2003,11,1.99866199516,3810,220250,880,1669,987,,,274
2003,12,1.9384922127,2987,196724,737,1321,773,,,156
2003,13,1.41293161719,2439,198913,624,1016,640,,,159
2003,14,1.23472204048,2028,192349,506,846,541,,,135
2003,15,1.20004644305,2082,194383,569,799,551,,,163
2003,16,0.910134874668,1467,177577,440,539,382,,,106
2003,17,0.932265056781,1445,176111,429,508,394,,,114
2003,18,0.692174767593,1075,170406,275,444,272,,,84
2003,19,0.669406229596,1005,157191,215,471,245,,,74
2003,20,0.727705269811,836,142514,248,283,235,,,70
