year,ew,wili,num_ili,num_patients,age_0,age_1,age_2,age_3,age_4,age_5
2004,21,0.637558475854,1070,133008,375,349,280,,,66
2004,22,0.813309180415,1061,120884,391,308,289,,,73
2004,23,0.834551050052,987,133117,355,309,257,,,66
2004,24,0.61617406098,851,128740,307,240,258,,,46
2004,25,0.513285742502,887,124037,277,284,245,,,81
2004,26,0.351881074467,698,124146,238,183,215,,,62
2004,27,0.542621107165,710,90238,233,205,210,,,62
2004,28,0.581036192539,836,97135,249,280,227,,,80
2004,29,0.49548630024,659,95515,259,200,162,,,38
2004,30,0.61209036027,719,92216,260,230,189,,,40
2004,31,0.531490547923,733,116693,213,235,225,,,60
2004,32,0.51998671084,809,89644,243,256,247,,,63
2004,33,0.574475754138,770,95481,256,256,200,,,58
2004,34,0.663175351255,799,91326,259,265,231,,,44
2004,35,0.614691037252,960,96656,279,358,252,,,71
2004,36,0.656822919933,913,104207,281,309,263,,,60
2004,37,0.7230157237,1122,118343,342,413,299,,,68
2004,38,0.69185724015,1089,117483,322,416,268,,,83
2004,39,0.782757764472,1116,114857,333,382,319,,,82
2004,40,0.982275251246,3171,353449,877,1256,853,,,185
2004,41,1.01821254355,3631,355116,1071,1373,971,,,216
2004,42,1.17680497469,4019,378094,1240,1534,1019,,,226
2004,43,1.30121171362,4369,380921,1190,1671,1223,,,285
2004,44,1.27745564952,4551,377692,1327,1718,1215,,,291
2004,45,1.40386862523,4969,380718,1497,1874,1279,,,319
2004,46,1.40301008403,4983,387182,1531,1874,1279,,,299
2004,47,1.73974780402,4713,295546,1490,1678,1274,,,271
2004,48,1.56894071647,5407,387004,1538,2059,1434,,,376
2004,49,1.65927173785,5428,374356,1551,2052,1450,,,375
2004,50,1.81341115947,5755,355806,1670,2071,1643,,,371
2004,51,2.3762557888,5689,259639,1856,1807,1608,,,418
2004,52,2.7705247214,7279,283617,2252,1993,2413,,,621
2005,1,2.40064287277,8041,369455,2010,2450,2869,,,712
2005,2,2.54154637837,8323,378024,2188,2982,2542,,,611
2005,3,2.8587063898,9328,368678,2199,3682,2839,,,608
2005,4,3.55010575774,12422,405254,2747,5364,3586,,,725
2005,5,4.58591287086,16192,406772,3086,7650,4498,,,958
2005,6,5.05808649713,19369,421461,3626,8854,5757,,,1132
2005,7,5.44150703293,19931,419426,3834,8400,6515,,,1182
2005,8,4.4729038155,16630,397883,3720,6759,5125,,,1026
2005,9,3.67520020609,13234,383196,2997,5343,4058,,,836
2005,10,3.33529975561,11601,367292,2728,4494,3634,,,745
2005,11,2.76223957428,9502,355454,2416,3513,2969,,,604
2005,12,2.46844399773,7900,335940,2145,2771,2434,,,550
2005,13,2.00080734473,6329,334438,1827,2133,1979,,,390
2005,14,1.54318952284,4816,315823,1422,1737,1327,,,330
2005,15,1.50195086621,4445,314948,1356,1603,1169,,,317
2005,16,1.22917811008,3825,305833,1096,1469,954,,,306
2005,17,1.21853900516,3646,302065,1117,1411,894,,,224
2005,18,1.15831519646,2990,277120,903,1136,762,,,189
2005,19,1.24900074402,3012,263009,979,1115,710,,,208
2005,20,1.16887834052,2531,238494,805,926,600,,,200
