year,ew,wili,num_ili,num_patients,age_0,age_1,age_2,age_3,age_4,age_5
2006,21,0.918150851578,2061,231075,699,764,452,,,146
2006,22,0.930990335979,1645,190252,572,561,404,,,108
2006,23,0.857294424084,2075,213847,754,626,564,,,131
2006,24,0.786294126258,1430,169353,514,447,388,,,81
2006,25,0.71942639505,1300,167770,463,409,328,,,100
2006,26,0.718868380094,1271,154741,466,390,323,,,92
2006,27,0.774806970488,1215,139216,437,402,305,,,71
2006,28,0.7659802541,1617,175259,549,511,449,,,108
2006,29,0.642808854133,1553,172654,541,440,460,,,112
2006,30,0.622032769481,1455,172581,502,403,422,,,128
2006,31,0.616325939669,1428,161937,508,430,402,,,88
2006,32,0.68569357156,1373,168024,473,435,383,,,82
2006,33,0.622697338188,1457,167183,510,466,390,,,91
2006,34,0.611817261854,1138,154071,404,379,279,,,76
2006,35,0.638830539862,1224,153390,398,457,292,,,77
2006,36,0.806627170384,1463,144289,492,506,396,,,69
2006,37,0.762448355719,1406,159603,446,521,361,,,78
2006,38,0.81340629973,1487,157627,511,534,362,,,80
2006,39,0.807934420623,1433,160732,476,512,364,,,81
2006,40,1.15383912678,4513,375076,1434,1699,1116,,,264
2006,41,1.14818819361,4072,384920,1278,1602,992,,,200
2006,42,1.22735991518,4737,419005,1543,1830,1099,,,265
2006,43,1.21744394561,4888,434287,1582,1996,1086,,,224
2006,44,1.32813200398,5380,445334,1672,2270,1157,,,281
2006,45,1.47754109095,6139,454901,2112,2393,1320,,,314
2006,46,1.53390109355,6668,453945,2355,2681,1342,,,290
2006,47,1.91269413807,6156,336822,2188,2202,1409,,,357
2006,48,1.83799931698,7530,452089,2573,2792,1774,,,391
2006,49,1.95375577107,8122,436741,2643,3244,1804,,,431
2006,50,2.40407467721,10396,435177,3270,4470,2177,,,479
2006,51,2.87452676835,10192,365334,3387,4065,2237,,,503
2006,52,3.02596786416,8913,286087,3243,2868,2216,,,586
2007,1,2.37817014786,8386,369521,2927,2481,2394,,,584
2007,2,2.09232293132,7761,416464,2507,2756,2018,,,480
2007,3,2.29395915193,7909,395477,2548,3248,1701,,,412
2007,4,2.74500907199,10888,446119,3410,4684,2257,,,537
2007,5,3.04433966702,12120,428241,3456,5648,2559,,,457
2007,6,3.49998683172,14197,454533,3840,6995,2910,,,452
2007,7,3.57850964552,14031,429057,3879,6668,2955,,,529
2007,8,3.28978609422,14048,442099,3728,6537,3175,,,608
2007,9,2.89149161111,11801,433281,3016,5429,2778,,,578
2007,10,2.62074751563,10715,428255,2798,4937,2533,,,447
2007,11,2.53387108275,9597,395394,2668,4031,2426,,,472
2007,12,2.07251264037,7562,385735,2049,3307,1857,,,349
2007,13,1.87084370929,6148,386327,1664,2508,1625,,,351
2007,14,1.40042142043,4958,361955,1445,1803,1379,,,331
2007,15,1.46887378468,4869,357183,1429,1821,1274,,,345
2007,16,1.15513661857,4179,356055,1257,1523,1112,,,287
2007,17,1.07901266858,3695,347413,1152,1386,937,,,220
2007,18,0.98491950088,3077,317311,969,1143,755,,,210
2007,19,1.03324765909,2860,296262,917,1055,713,,,175
2007,20,0.926649487991,2442,285031,815,861,590,,,176
