year,ew,wili,num_ili,num_patients,age_0,age_1,age_2,age_3,age_4,age_5
2008,21,0.805438572694,3646,367075,1393,1116,926,,,211
2008,22,0.886061331875,3803,348477,1473,1083,1004,,,243
2008,23,0.743742683096,2933,330127,1159,906,729,,,139
2008,24,0.706842044861,2906,327366,1113,886,720,,,187
2008,25,0.655943482,2842,321789,1115,855,712,,,160
2008,26,0.633491767056,2534,306499,937,810,654,,,133
2008,27,0.571837180694,2405,307073,913,762,575,,,155
2008,28,0.558278240857,2431,311423,881,749,669,,,132
2008,29,0.597893281911,2319,301532,826,703,619,,,171
2008,30,0.577221624228,2166,300292,779,704,552,,,131
2008,31,0.596987365404,2289,304175,788,763,599,,,139
2008,32,0.564652873181,2220,294930,679,706,619,,,216
2008,33,0.585681702598,2368,298701,789,745,650,,,184
2008,34,0.503985402974,2237,300714,730,754,619,,,134
2008,35,0.468139143858,2429,298342,794,892,616,,,127
2008,36,0.576454849137,2461,293535,774,880,663,,,144
2008,37,0.681360615376,2788,327567,859,994,758,,,177
2008,38,0.794763739412,3735,336560,1062,1527,958,,,188
2008,39,0.868115785409,3400,329731,983,1306,932,,,179
2008,40,1.06828136523,5687,555999,1535,2352,1476,,,324
2008,41,1.00755640865,5959,578446,1861,2291,1485,,,322
2008,42,0.979398906443,5896,582351,1869,2219,1467,,,341
2008,43,1.04942944896,6485,598473,1976,2474,1668,,,367
2008,44,1.13218246938,6987,599343,2119,2547,1869,,,452
2008,45,1.13156087725,7297,612526,2276,2668,1981,,,372
2008,46,1.15469317831,7667,598635,2512,2854,1889,,,412
2008,47,1.20448041076,7733,608646,2600,2828,1893,,,412
2008,48,1.36081326766,7634,478386,3024,2412,1741,,,457
2008,49,1.30321908135,8708,597052,3114,2913,2212,,,469
2008,50,1.30204227866,8689,579573,3252,3024,1974,,,439
2008,51,1.45108668035,7812,479318,3137,2579,1640,,,456
2008,52,1.79927367652,8706,403876,3897,2367,1947,,,495
2009,1,1.4713784037,8956,579428,3245,2548,2606,,,557
2009,2,1.61554961112,9289,565631,3142,3345,2329,,,473
2009,3,1.95332602587,11456,582932,3602,4597,2821,,,436
2009,4,2.42906504047,14324,611176,4039,6602,3215,,,468
2009,5,2.96686053292,18268,638613,4606,8882,4240,,,540
2009,6,3.57353697615,21667,648304,5064,11215,4636,,,752
2009,7,3.36652900665,20022,624583,4848,9851,4685,,,638
2009,8,3.2961958483,20450,659573,4694,10092,5007,,,657
2009,9,3.17226797581,18441,623389,4420,9116,4272,,,633
2009,10,2.58040499454,15711,637672,4046,7446,3601,,,618
2009,11,2.42922285574,13277,605503,3657,6036,3002,,,582
2009,12,1.9902792921,11400,608342,3237,5052,2661,,,450
2009,13,1.72422584359,9669,586651,2829,4283,2158,,,399
2009,14,1.60354839432,8460,564460,2577,3407,2085,,,391
2009,15,1.28417849619,7222,558837,2371,2761,1727,,,363
2009,16,1.29320023074,7348,577836,2353,2855,1743,,,397
2009,17,2.74012331225,18627,624734,4821,8043,5093,,,670
2009,18,2.22391145124,14578,598189,3920,6221,3875,,,562
2009,19,1.76656838942,12554,550300,3236,5888,3018,,,412
2009,20,1.92170567241,20774,544432,4188,12026,4136,,,424
