year,ew,wili,num_ili,num_patients,age_0,age_1,age_2,age_3,age_4,age_5
2009,21,1.86110425686,22394,531526,4496,12461,4950,,,487
2009,22,1.6842277314,17105,538177,3865,8615,4213,,,412
2009,23,1.73930292859,12392,493761,3072,5660,3276,,,384
2009,24,1.83001431081,10780,521701,2623,4740,3084,,,333
2009,25,1.58128017928,8801,512268,2299,3700,2476,,,326
2009,26,1.49172467571,7422,475877,2145,2893,2023,,,361
2009,27,1.38899504263,6290,480680,1701,2481,1815,,,293
2009,28,1.34702058136,5964,502466,1581,2437,1708,,,238
2009,29,1.16056441079,5735,503971,1608,2285,1611,,,231
2009,30,1.20850078835,5587,485804,1519,2199,1575,,,294
2009,31,1.15544127671,5526,496666,1651,2082,1530,,,263
2009,32,1.14517885143,5877,506019,1645,2321,1646,,,265
2009,33,1.46639614432,8941,544827,2167,4210,2168,,,396
2009,34,2.38017161812,14556,588916,2883,8253,2977,,,443
2009,35,3.44681309932,21350,573972,3713,13114,3982,,,541
2009,36,4.05314873785,22561,571201,4087,13407,4547,,,520
2009,37,4.26620869256,26091,638302,4445,15326,5668,,,652
2009,38,4.2157940301,24454,608464,4462,14152,5252,,,588
2009,39,4.88609794072,27919,606458,4974,16291,6090,,,564
2009,40,6.06922886682,48420,855346,9302,27406,,8554,2255,903
2009,41,7.09466802853,58196,853912,11527,32585,,10271,2800,1013
2009,42,7.71510229753,69068,906536,13187,39364,,12399,3048,1070
2009,43,7.55134381192,66411,898860,13174,36860,,12166,3083,1128
2009,44,6.67117818911,57017,899425,12161,30860,,10250,2672,1074
2009,45,5.20632628751,42729,864348,10151,21112,,8174,2314,978
2009,46,4.04477479874,32520,853552,8979,14652,,6163,1843,883
2009,47,3.4972172842,22508,654101,7716,8237,,4378,1406,771
2009,48,2.69022729136,21730,814550,7195,7988,,4259,1470,818
2009,49,2.47118784479,19325,781811,6490,7218,,3588,1314,715
2009,50,2.44772749269,17081,728401,6275,5785,,3249,1113,659
2009,51,2.64593841632,14575,536961,6078,4127,,2677,1049,644
2009,52,2.6156703984,15613,583299,6598,3726,,3202,1284,803
2010,1,1.9071176043,14299,721138,4998,3961,,3333,1244,763
2010,2,1.86737529968,14088,770895,4877,4614,,2793,1182,622
2010,3,1.88072330632,14757,766177,5399,5079,,2693,1008,578
2010,4,1.96908433236,15122,785580,5333,5655,,2560,1046,528
2010,5,2.11386811062,16037,767773,5816,6142,,2581,948,550
2010,6,2.09694583121,15381,756068,5496,5577,,2644,1006,658
2010,7,1.90294345645,15065,762208,5388,5536,,2649,994,498
2010,8,1.96951462278,16087,806925,5040,6207,,2943,1218,679
2010,9,1.92331036712,14486,781411,4281,5685,,2763,1085,672
2010,10,1.89658616483,14354,768702,4612,5270,,2660,1112,700
2010,11,1.7518055505,12601,741293,4063,4466,,2468,976,628
2010,12,1.52631922263,11191,747358,3625,4108,,2097,827,534
2010,13,1.49571988363,10359,713863,3408,3733,,1954,736,528
2010,14,1.22313021685,8813,730068,3090,2933,,1718,644,428
2010,15,1.17754240902,8801,749563,3117,3110,,1572,598,404
2010,16,1.09111851417,8362,719580,2921,3044,,1461,522,414
2010,17,1.11957937084,8440,720054,3081,2972,,1435,557,395
2010,18,1.08168511952,7914,705551,2781,2901,,1385,482,365
2010,19,1.12497482672,7697,669414,2851,2645,,1363,491,347
2010,20,1.06196978975,7603,670887,2816,2553,,1364,498,372
