year,ew,wili,num_ili,num_patients,age_0,age_1,age_2,age_3,age_4,age_5
2015,21,1.2689,8200,619839,2611,2834,,1557,684,514
2015,22,1.23618,7227,615084,2235,2463,,1440,617,472
2015,23,1.10196,7034,614592,2125,2409,,1424,611,465
2015,24,0.991186,6108,606462,1748,2158,,1266,517,419
2015,25,0.986438,6170,595316,1912,2032,,1258,522,446
2015,26,0.986662,5455,536787,1692,1781,,1143,453,386
2015,27,0.903832,5329,593765,1561,1761,,1156,471,380
2015,28,0.847875,5082,592311,1505,1698,,1109,428,342
2015,29,0.7889,4908,585998,1426,1600,,1106,445,331
2015,30,0.784654,4798,570824,1424,1540,,1083,448,303
2015,31,0.786636,4982,582506,1413,1688,,1110,441,330
2015,32,0.837102,4971,584702,1342,1770,,1142,421,296
2015,33,0.85255,5409,614373,1454,1916,,1211,462,366
2015,34,0.855974,5822,635495,1686,2111,,1213,450,362
2015,35,0.910364,6240,626473,1653,2420,,1327,510,330
2015,36,0.95371,6281,584872,1729,2310,,1398,499,345
2015,37,1.07347,7420,654777,2021,2897,,1506,587,409
2015,38,1.13914,8099,656663,2200,3121,,1668,663,447
2015,39,1.14961,8121,653303,2207,2936,,1830,720,428
2015,40,1.2444,10205,814503,2868,3753,,2059,899,626
2015,41,1.31167,10697,809033,3014,4001,,2094,910,678
2015,42,1.36705,11582,827238,3261,4360,,2357,951,653
2015,43,1.37872,11159,821596,3138,4147,,2255,926,693
2015,44,1.44664,12479,848307,3592,4798,,2458,937,694
2015,45,1.51435,12680,826121,3753,4729,,2513,943,742
2015,46,1.60549,13492,838073,3961,5078,,2659,1025,769
2015,47,1.91028,12149,638819,3972,4066,,2427,981,703
2015,48,1.68953,14613,840747,4467,5076,,3009,1232,829
2015,49,1.79136,14992,823133,4586,5379,,2902,1252,873
2015,50,1.88284,15400,781499,5137,5105,,2963,1252,943
2015,51,2.32899,14805,611577,5366,4307,,2874,1252,1006
2015,52,2.42149,15666,649067,5697,4007,,3263,1521,1178
2016,1,1.95303,15648,784274,4775,4490,,3594,1631,1158
2016,2,2.00322,15511,778663,4572,5360,,3179,1379,1021
2016,3,2.12477,15582,739416,4768,5359,,3212,1292,951
2016,4,2.24537,18142,830449,5088,6881,,3614,1552,1007
2016,5,2.3839,18942,821988,5134,7352,,3760,1625,1071
2016,6,2.81135,21753,811775,5641,8425,,4595,1916,1176
2016,7,3.13597,24657,827769,6001,9319,,5632,2342,1363
2016,8,3.16087,26439,847274,6301,10142,,5996,2611,1389
2016,9,3.3327,28304,850930,6557,11357,,6368,2590,1432
2016,10,3.55722,30420,846521,6652,11839,,7339,2973,1617
2016,11,3.06024,24864,802981,5569,9324,,6017,2489,1465
2016,12,2.77036,21908,785099,5182,8482,,4970,1997,1277
2016,13,2.44031,19554,774051,4569,7377,,4465,1948,1195
2016,14,2.0237,16734,789125,3711,6381,,3858,1655,1129
2016,15,1.98334,16265,792539,3570,6602,,3521,1536,1036
2016,16,1.91625,15459,773961,3514,6390,,3240,1374,941
2016,17,1.6998,13838,776198,3158,5562,,2983,1237,898
2016,18,1.57581,11860,739287,2769,4724,,2586,1036,745
2016,19,1.36919,10693,729187,2861,4042,,2278,848,664
2016,20,1.29911,9780,686344,2681,3622,,1995,839,643
