,year,ew,wili,num_ili,num_patients,age_0,age_1,age_2,age_3,age_4,age_5,age_0,age_1,age_2,age_3,age_4,age_5,age_0,age_1,age_2,age_3,age_4,age_5,age_0,age_1,age_2,age_3,age_4,age_5,age_0,age_1,age_2,age_3,age_4,age_5,age_0,age_1,age_2,age_3,age_4,age_5,age_0,age_1,age_2,age_3,age_4,age_5
0,2000,40,1.04113363965,1041,84727,206,443,322,,,70,206,443,322,,,70,206,443,322,,,70,206,443,322,,,70,206,443,322,,,70,206,443,322,,,70,206,443,322,,,70
1,2000,41,1.28709844063,1234,116917,270,489,389,,,86,270,489,389,,,86,270,489,389,,,86,270,489,389,,,86,270,489,389,,,86,270,489,389,,,86,270,489,389,,,86
2,2000,42,1.28298747975,1561,134587,390,617,458,,,96,390,617,458,,,96,390,617,458,,,96,390,617,458,,,96,390,617,458,,,96,390,617,458,,,96,390,617,458,,,96
3,2000,43,1.34080729313,1781,145165,411,683,564,,,123,411,683,564,,,123,411,683,564,,,123,411,683,564,,,123,411,683,564,,,123,411,683,564,,,123,411,683,564,,,123
4,2000,44,1.05549660151,1870,150676,465,703,564,,,138,465,703,564,,,138,465,703,564,,,138,465,703,564,,,138,465,703,564,,,138,465,703,564,,,138,465,703,564,,,138
5,2000,45,1.1413587058,2229,155700,564,849,635,,,181,564,849,635,,,181,564,849,635,,,181,564,849,635,,,181,564,849,635,,,181,564,849,635,,,181,564,849,635,,,181
6,2000,46,1.44110503864,2449,163893,572,979,736,,,162,572,979,736,,,162,572,979,736,,,162,572,979,736,,,162,572,979,736,,,162,572,979,736,,,162,572,979,736,,,162
7,2000,47,1.95734583549,2417,131168,704,913,646,,,154,704,913,646,,,154,704,913,646,,,154,704,913,646,,,154,704,913,646,,,154,704,913,646,,,154,704,913,646,,,154
8,2000,48,1.61927860546,2854,178641,673,1085,900,,,196,673,1085,900,,,196,673,1085,900,,,196,673,1085,900,,,196,673,1085,900,,,196,673,1085,900,,,196,673,1085,900,,,196
9,2000,49,1.78440202396,3097,178529,710,1232,916,,,239,710,1232,916,,,239,710,1232,916,,,239,710,1232,916,,,239,710,1232,916,,,239,710,1232,916,,,239,710,1232,916,,,239
10,2000,50,2.34423392246,3394,165935,677,1455,1077,,,185,677,1455,1077,,,185,677,1455,1077,,,185,677,1455,1077,,,185,677,1455,1077,,,185,677,1455,1077,,,185,677,1455,1077,,,185
11,2000,51,2.6952760002,3361,139431,767,1337,1052,,,205,767,1337,1052,,,205,767,1337,1052,,,205,767,1337,1052,,,205,767,1337,1052,,,205,767,1337,1052,,,205,767,1337,1052,,,205
12,2000,52,3.86180307034,4152,122719,1059,1335,1496,,,262,1059,1335,1496,,,262,1059,1335,1496,,,262,1059,1335,1496,,,262,1059,1335,1496,,,262,1059,1335,1496,,,262,1059,1335,1496,,,262
13,2001,1,3.50499785483,4796,148538,1049,1571,1855,,,321,1049,1571,1855,,,321,1049,1571,1855,,,321,1049,1571,1855,,,321,1049,1571,1855,,,321,1049,1571,1855,,,321,1049,1571,1855,,,321
14,2001,2,3.43803554526,5544,177720,1081,2423,1722,,,318,1081,2423,1722,,,318,1081,2423,1722,,,318,1081,2423,1722,,,318,1081,2423,1722,,,318,1081,2423,1722,,,318,1081,2423,1722,,,318
15,2001,3,4.39279926784,6717,176566,1395,3223,1806,,,293,1395,3223,1806,,,293,1395,3223,1806,,,293,1395,3223,1806,,,293,1395,3223,1806,,,293,1395,3223,1806,,,293,1395,3223,1806,,,293
16,2001,4,4.21338702999,7908,188879,1542,4057,1991,,,318,1542,4057,1991,,,318,1542,4057,1991,,,318,1542,4057,1991,,,318,1542,4057,1991,,,318,1542,4057,1991,,,318,1542,4057,1991,,,318
17,2001,5,4.35363988214,7287,182792,1329,3705,1958,,,295,1329,3705,1958,,,295,1329,3705,1958,,,295,1329,3705,1958,,,295,1329,3705,1958,,,295,1329,3705,1958,,,295,1329,3705,1958,,,295
18,2001,6,3.69969326753,6476,179586,1370,3017,1731,,,358,1370,3017,1731,,,358,1370,3017,1731,,,358,1370,3017,1731,,,358,1370,3017,1731,,,358,1370,3017,1731,,,358,1370,3017,1731,,,358
19,2001,7,2.81921249162,4832,171948,1059,2126,1393,,,254,1059,2126,1393,,,254,1059,2126,1393,,,254,1059,2126,1393,,,254,1059,2126,1393,,,254,1059,2126,1393,,,254,1059,2126,1393,,,254
20,2001,8,2.55294130051,3923,162402,834,1566,1278,,,245,834,1566,1278,,,245,834,1566,1278,,,245,834,1566,1278,,,245,834,1566,1278,,,245,834,1566,1278,,,245,834,1566,1278,,,245
21,2001,9,1.90166591812,2606,150399,683,1008,752,,,163,683,1008,752,,,163,683,1008,752,,,163,683,1008,752,,,163,683,1008,752,,,163,683,1008,752,,,163,683,1008,752,,,163
22,2001,10,1.68032660335,2562,155916,622,934,854,,,152,622,934,854,,,152,622,934,854,,,152,622,934,854,,,152,622,934,854,,,152,622,934,854,,,152,622,934,854,,,152
23,2001,11,1.62539726626,1943,143075,524,762,522,,,135,524,762,522,,,135,524,762,522,,,135,524,762,522,,,135,524,762,522,,,135,524,762,522,,,135,524,762,522,,,135
24,2001,12,1.45956702846,1879,135154,485,751,507,,,136,485,751,507,,,136,485,751,507,,,136,485,751,507,,,136,485,751,507,,,136,485,751,507,,,136,485,751,507,,,136
25,2001,13,1.32375912761,1590,129934,465,575,419,,,131,465,575,419,,,131,465,575,419,,,131,465,575,419,,,131,465,575,419,,,131,465,575,419,,,131,465,575,419,,,131
26,2001,14,0.920073256501,1256,112235,288,421,421,,,126,288,421,421,,,126,288,421,421,,,126,288,421,421,,,126,288,421,421,,,126,288,421,421,,,126,288,421,421,,,126
27,2001,15,0.779256523069,950,101175,219,344,305,,,82,219,344,305,,,82,219,344,305,,,82,219,344,305,,,82,219,344,305,,,82,219,344,305,,,82,219,344,305,,,82
28,2001,16,0.991302636886,997,105580,234,331,344,,,88,234,331,344,,,88,234,331,344,,,88,234,331,344,,,88,234,331,344,,,88,234,331,344,,,88,234,331,344,,,88
29,2001,17,0.826930031205,771,103824,198,274,253,,,46,198,274,253,,,46,198,274,253,,,46,198,274,253,,,46,198,274,253,,,46,198,274,253,,,46,198,274,253,,,46
30,2001,18,0.58895189401,734,99802,173,265,225,,,71,173,265,225,,,71,173,265,225,,,71,173,265,225,,,71,173,265,225,,,71,173,265,225,,,71,173,265,225,,,71
31,2001,19,0.605586208138,671,92532,165,250,196,,,60,165,250,196,,,60,165,250,196,,,60,165,250,196,,,60,165,250,196,,,60,165,250,196,,,60,165,250,196,,,60
32,2001,20,0.494339755407,470,70113,94,179,159,,,38,94,179,159,,,38,94,179,159,,,38,94,179,159,,,38,94,179,159,,,38,94,179,159,,,38,94,179,159,,,38
